{
   "version" : 2,
   "controller" : {},
   "workers" : [{
        "options" : {
            "env" : {},
            "reactor" : {
               "linux" : "epoll"
            },
            "title" : "NeuroChip::Implant"
        },
        "type" : "router",
        "transports" : [{
           "type" : "websocket",
           "endpoint" : {
              "type" : "tcp",
              "port" : 7001
           }
        },{
           "type" : "web",
           "endpoint" : {
              "type" : "tcp",
              "port" : "$PORT"
           },
           "paths" : {
              "/" : {
                 "type" : "static",
                 "options" : {
                    "enable_directory_listing" : true,
                    "mime_types" : {
                       ".svg" : "image/svg+xml"
                    }
                 },
                 "directory" : "./public"
              },
              "cdn" : {
                 "directory" : "./assets",
                 "type" : "static",
                 "options" : {
                    "enable_directory_listing" : true,
                    "mime_types" : {
                       ".svg" : "image/svg+xml"
                    }
                 }
              },
              "nltk" : {
                 "type"   : "wsgi",
                 "module" : "nltk_server",
                 "object" : "app"
              },
              "jobs" : {
                 "host" : "localhost",
                 "path" : "/jobs",
                 "type" : "reverseproxy",
                 "port" : 7005
              },
              "dags" : {
                 "port" : 7004,
                 "type" : "reverseproxy",
                 "path" : "",
                 "host" : "localhost"
              },
              "sock" : {
                 "type" : "websocket",
                 "auth" : {
                    "ticket" : {
                       "authenticator" : "neurochip.implant.authentify",
                       "type" : "dynamic"
                    }
                 },
                 "serializers" : ["json","msgpack","ubjson","cbor"]
              },
              "poll" : {
                 "type" : "longpoll"
              }
           }
        },{
           "allowed_ports" : [
              7002
           ],
           "allowed_domain" : "*",
           "type" : "flashpolicy",
           "endpoint" : {
              "type" : "tcp",
              "port" : 7002
           }
        }],
        "components" : [],
        "realms" : [{
               "store" : {
                  "limit" : 100,
                  "type" : "memory",
                  "call-queue" : [
                     {
                        "limit" : 1000,
                        "uri" : "neurochip.implant.logging",
                        "match" : "exact"
                     }
                  ],
                  "event-history" : [
                     {
                        "match" : "exact",
                        "limit" : 1000,
                        "uri" : "neurochip.implant.logging"
                     }
                  ]
               },
               "name" : "neurochip.implant",
               "roles" : [
                  {
                     "name" : "authorizer",
                     "permissions" : [
                        {
                           "match" : "exact",
                           "allow" : {
                              "call" : false,
                              "subscribe" : true,
                              "register" : false,
                              "publish" : false
                           },
                           "uri" : "neurochip.implant.authentify"
                        }
                     ]
                  },
                  {
                     "name" : "frontend",
                     "permissions" : [
                        {
                           "match" : "prefix",
                           "allow" : {
                              "publish" : true,
                              "register" : true,
                              "subscribe" : true,
                              "call" : true
                           },
                           "uri" : "neurochip.implant.live."
                        },
                        {
                           "match" : "prefix",
                           "allow" : {
                              "publish" : false,
                              "register" : false,
                              "subscribe" : true,
                              "call" : true
                           },
                           "uri" : "neurochip.implant."
                        }
                     ]
                  },
                  {
                     "permissions" : [
                        {
                           "match" : "prefix",
                           "allow" : {
                              "call" : true,
                              "register" : true,
                              "subscribe" : true,
                              "publish" : true
                           },
                           "uri" : "neurochip.implant.head."
                        },
                        {
                           "uri" : "neurochip.implant.",
                           "allow" : {
                              "call" : false,
                              "register" : false,
                              "subscribe" : false,
                              "publish" : false
                           },
                           "match" : "prefix"
                        }
                     ],
                     "name" : "anonymous"
                  },
                  {
                     "name" : "device",
                     "permissions" : [
                        {
                           "match" : "prefix",
                           "allow" : {
                              "call" : true,
                              "register" : true,
                              "subscribe" : true,
                              "publish" : true
                           },
                           "uri" : "neurochip.implant.dev."
                        },
                        {
                           "uri" : "neurochip.implant.spine.",
                           "match" : "prefix",
                           "allow" : {
                              "subscribe" : true,
                              "register" : true,
                              "call" : true,
                              "publish" : true
                           }
                        },
                        {
                           "uri" : "neurochip.implant.",
                           "match" : "prefix",
                           "allow" : {
                              "publish" : false,
                              "register" : false,
                              "subscribe" : true,
                              "call" : true
                           }
                        }
                     ]
                  },
                  {
                     "permissions" : [
                        {
                           "uri" : "neurochip.implant.mind.",
                           "match" : "prefix",
                           "allow" : {
                              "publish" : true,
                              "subscribe" : true,
                              "register" : true,
                              "call" : true
                           }
                        },
                        {
                           "uri" : "neurochip.implant.head.",
                           "match" : "prefix",
                           "allow" : {
                              "publish" : true,
                              "register" : true,
                              "subscribe" : true,
                              "call" : true
                           }
                        },
                        {
                           "match" : "prefix",
                           "allow" : {
                              "call" : true,
                              "subscribe" : true,
                              "register" : true,
                              "publish" : true
                           },
                           "uri" : "neurochip.implant.spine."
                        },
                        {
                           "match" : "prefix",
                           "allow" : {
                              "publish" : true,
                              "subscribe" : true,
                              "register" : true,
                              "call" : true
                           },
                           "uri" : "neurochip.implant.apis."
                        },
                        {
                           "uri" : "neurochip.implant.",
                           "match" : "prefix",
                           "allow" : {
                              "publish" : false,
                              "register" : false,
                              "subscribe" : true,
                              "call" : true
                           }
                        }
                     ],
                     "name" : "nerves"
                  },
                  {
                     "permissions" : [
                        {
                           "uri" : "neurochip.implant.mind.",
                           "match" : "prefix",
                           "allow" : {
                              "call" : true,
                              "register" : true,
                              "subscribe" : true,
                              "publish" : true
                           }
                        },
                        {
                           "allow" : {
                              "call" : true,
                              "register" : true,
                              "subscribe" : true,
                              "publish" : true
                           },
                           "match" : "prefix",
                           "uri" : "neurochip.implant.head."
                        },
                        {
                           "allow" : {
                              "subscribe" : true,
                              "register" : true,
                              "call" : true,
                              "publish" : true
                           },
                           "match" : "prefix",
                           "uri" : "neurochip.implant.body."
                        },
                        {
                           "match" : "prefix",
                           "allow" : {
                              "call" : true,
                              "register" : true,
                              "subscribe" : true,
                              "publish" : true
                           },
                           "uri" : "neurochip.implant.spine."
                        },
                        {
                           "uri" : "neurochip.implant.",
                           "match" : "prefix",
                           "allow" : {
                              "publish" : false,
                              "register" : false,
                              "subscribe" : true,
                              "call" : true
                           }
                        }
                     ],
                     "name" : "implant"
                  },
                  {
                     "permissions" : [
                        {
                           "match" : "prefix",
                           "allow" : {
                              "register" : true,
                              "subscribe" : true,
                              "call" : true,
                              "publish" : true
                           },
                           "uri" : "neurochip.implant.brain."
                        },
                        {
                           "match" : "prefix",
                           "allow" : {
                              "register" : true,
                              "subscribe" : true,
                              "call" : true,
                              "publish" : true
                           },
                           "uri" : "neurochip.implant.brain."
                        },
                        {
                           "match" : "prefix",
                           "allow" : {
                              "publish" : false,
                              "call" : true,
                              "subscribe" : true,
                              "register" : false
                           },
                           "uri" : "neurochip.implant."
                        }
                     ],
                     "name" : "intellect"
                  },
                  {
                     "name" : "backend",
                     "permissions" : [
                        {
                           "uri" : "neurochip.implant.",
                           "allow" : {
                              "subscribe" : true,
                              "register" : true,
                              "call" : true,
                              "publish" : true
                           },
                           "match" : "prefix"
                        }
                     ]
                  }
               ]
            }
         ],
         "connections" : []
      },{
         "type" : "guest",
         "executable" : "parse-server",
         "arguments" : [
            "--databaseURI","$MONGODB_URL",
            "--appId", "x000000000000000000000",
            "--masterKey","kjdshfkjdshflkdsjf",
         ],
         "options" : { "env" : { "inherit" : true } }
      },{
         "type" : "guest",
         "executable" : "parse-dashboard",
         "arguments" : [
            "--serverURL","http://localhost:7006",
            "--appId", "x000000000000000000000",
            "--masterKey","kjdshfkjdshflkdsjf",
            "--appName","optionalName"
         ],
         "options" : { "env" : { "inherit" : true } }
      },{
         "type" : "guest",
         "executable" : "runner.sh",
         "arguments" : ["-a","slack","--name","$BOT_SLACK_ALIAS"],
         "options" : {
            "env" : {
               "vars" : {
                  "PORT": "7004"
               },
               "inherit" : true
            },
            "watch" : { "directories" : ["./scripts"], "action" : "restart" },
            "workdir" : "."
         }
      },{
         "type" : "guest",
         "executable" : "runner.sh",
         "arguments" : ["-a","slack","--name","$BOT_HIPCHAT_ALIAS"],
         "options" : {
            "env" : {
               "vars" : {
                  "PORT": "7005"
               },
               "inherit" : true
            },
            "watch" : { "directories" : ["./scripts"], "action" : "restart" },
            "workdir" : "."
         }
      }
   ]
}
